%YAML 1.1
%TAG !u! tag:unity3d.com,2011:
--- !u!114 &11400000
MonoBehaviour:
  m_ObjectHideFlags: 0
  m_CorrespondingSourceObject: {fileID: 0}
  m_PrefabInstance: {fileID: 0}
  m_PrefabAsset: {fileID: 0}
  m_GameObject: {fileID: 0}
  m_Enabled: 1
  m_EditorHideFlags: 0
  m_Script: {fileID: 11500000, guid: 6889f0c4c66229a458330ee65c174601, type: 3}
  m_Name: Shuriken
  m_EditorClassIdentifier: 
  isCloseRange: 0
  attackRange: 15
  attackRate: 0.5
  damage: 1
  weaponSprite: {fileID: 21300000, guid: 0ccaf0556809dd749ae98528b4a9b90f, type: 3}
  weaponPrefab: {fileID: 8701867360941174381, guid: 8eb16ed875bca40458fe851e78071bdb,
    type: 3}
  weaponAnimation: {fileID: 0}
